SP.vcd
$date
	Mon Jan 01 15:26:53 2024
$end
$version
	Icarus Verilog
$end
$timescale
	10ps
$end
$scope module TESTBED $end
$var wire 1 ! rst_n $end
$var wire 1 " out_valid $end
$var wire 1 # mem_wen $end
$var wire 32 $ mem_dout [31:0] $end
$var wire 32 % mem_din [31:0] $end
$var wire 12 & mem_addr [11:0] $end
$var wire 32 ' inst_addr [31:0] $end
$var wire 32 ( inst [31:0] $end
$var wire 1 ) in_valid $end
$var wire 1 * clk $end
$var integer 32 + i [31:0] $end
$scope module My_MEM $end
$var wire 1 , CEN $end
$var wire 1 - OEN $end
$var wire 1 . _CEN $end
$var wire 1 / _CLK $end
$var wire 1 0 _OEN $end
$var wire 1 1 _OENi $end
$var wire 32 2 _Q [31:0] $end
$var wire 1 3 _WEN $end
$var wire 1 4 re_flag $end
$var wire 1 5 re_data_flag $end
$var wire 32 6 _D [31:0] $end
$var wire 12 7 _A [11:0] $end
$var wire 1 # WEN $end
$var wire 32 8 Q [31:0] $end
$var wire 32 9 D [31:0] $end
$var wire 1 * CLK $end
$var wire 12 : A [11:0] $end
$var parameter 32 ; BITS $end
$var parameter 32 < addr_width $end
$var parameter 12 = addrx $end
$var parameter 32 > word_depth $end
$var parameter 32 ? wordx $end
$var reg 12 @ Ai [11:0] $end
$var reg 1 A CENi $end
$var reg 32 B Di [31:0] $end
$var reg 1 C LAST_CLK $end
$var reg 12 D LAST_NOT_A [11:0] $end
$var reg 1 E LAST_NOT_CEN $end
$var reg 1 F LAST_NOT_CLK_MINH $end
$var reg 1 G LAST_NOT_CLK_MINL $end
$var reg 1 H LAST_NOT_CLK_PER $end
$var reg 32 I LAST_NOT_D [31:0] $end
$var reg 1 J LAST_NOT_WEN $end
$var reg 32 K LAST_Qi [31:0] $end
$var reg 12 L LATCHED_A [11:0] $end
$var reg 1 M LATCHED_CEN $end
$var reg 32 N LATCHED_D [31:0] $end
$var reg 1 O LATCHED_WEN $end
$var reg 12 P NOT_A [11:0] $end
$var reg 1 Q NOT_A0 $end
$var reg 1 R NOT_A1 $end
$var reg 1 S NOT_A10 $end
$var reg 1 T NOT_A11 $end
$var reg 1 U NOT_A2 $end
$var reg 1 V NOT_A3 $end
$var reg 1 W NOT_A4 $end
$var reg 1 X NOT_A5 $end
$var reg 1 Y NOT_A6 $end
$var reg 1 Z NOT_A7 $end
$var reg 1 [ NOT_A8 $end
$var reg 1 \ NOT_A9 $end
$var reg 1 ] NOT_CEN $end
$var reg 1 ^ NOT_CLK_MINH $end
$var reg 1 _ NOT_CLK_MINL $end
$var reg 1 ` NOT_CLK_PER $end
$var reg 32 a NOT_D [31:0] $end
$var reg 1 b NOT_D0 $end
$var reg 1 c NOT_D1 $end
$var reg 1 d NOT_D10 $end
$var reg 1 e NOT_D11 $end
$var reg 1 f NOT_D12 $end
$var reg 1 g NOT_D13 $end
$var reg 1 h NOT_D14 $end
$var reg 1 i NOT_D15 $end
$var reg 1 j NOT_D16 $end
$var reg 1 k NOT_D17 $end
$var reg 1 l NOT_D18 $end
$var reg 1 m NOT_D19 $end
$var reg 1 n NOT_D2 $end
$var reg 1 o NOT_D20 $end
$var reg 1 p NOT_D21 $end
$var reg 1 q NOT_D22 $end
$var reg 1 r NOT_D23 $end
$var reg 1 s NOT_D24 $end
$var reg 1 t NOT_D25 $end
$var reg 1 u NOT_D26 $end
$var reg 1 v NOT_D27 $end
$var reg 1 w NOT_D28 $end
$var reg 1 x NOT_D29 $end
$var reg 1 y NOT_D3 $end
$var reg 1 z NOT_D30 $end
$var reg 1 { NOT_D31 $end
$var reg 1 | NOT_D4 $end
$var reg 1 } NOT_D5 $end
$var reg 1 ~ NOT_D6 $end
$var reg 1 !" NOT_D7 $end
$var reg 1 "" NOT_D8 $end
$var reg 1 #" NOT_D9 $end
$var reg 1 $" NOT_WEN $end
$var reg 32 %" Qi [31:0] $end
$var reg 1 &" WENi $end
$scope function valid_address $end
$var reg 12 '" a [11:0] $end
$upscope $end
$scope task latch_inputs $end
$upscope $end
$scope task mem_cycle $end
$upscope $end
$scope task process_violations $end
$upscope $end
$scope task read_mem $end
$var reg 1 (" r_wb $end
$var reg 1 )" xflag $end
$upscope $end
$scope task update_last_notifiers $end
$upscope $end
$scope task update_logic $end
$upscope $end
$scope task update_notifier_buses $end
$upscope $end
$scope task write_mem $end
$var reg 12 *" a [11:0] $end
$var reg 32 +" d [31:0] $end
$upscope $end
$scope task write_mem_x $end
$var reg 12 ," a [11:0] $end
$upscope $end
$scope task x_inputs $end
$var integer 32 -" n [31:0] $end
$upscope $end
$scope task x_mem $end
$var integer 32 ." n [31:0] $end
$upscope $end
$upscope $end
$scope module My_PATTERN $end
$var wire 1 " out_valid $end
$var wire 32 /" inst_addr [31:0] $end
$var reg 1 * clk $end
$var reg 1 ) in_valid $end
$var reg 32 0" inst [31:0] $end
$var reg 1 ! rst_n $end
$var real 1 1" CYCLE $end
$var integer 32 2" address [31:0] $end
$var integer 32 3" func [31:0] $end
$var integer 32 4" golden_inst_addr [31:0] $end
$var integer 32 5" i [31:0] $end
$var integer 32 6" immediate [31:0] $end
$var integer 32 7" opcode [31:0] $end
$var integer 32 8" out_counter [31:0] $end
$var integer 32 9" out_max_latency [31:0] $end
$var integer 32 :" pat [31:0] $end
$var integer 32 ;" pat_num [31:0] $end
$var integer 32 <" rd [31:0] $end
$var integer 32 =" rs [31:0] $end
$var integer 32 >" rt [31:0] $end
$var integer 32 ?" seed [31:0] $end
$var integer 32 @" shamt [31:0] $end
$var integer 32 A" t [31:0] $end
$scope task check_ans_task $end
$upscope $end
$scope task check_memory_task $end
$upscope $end
$scope task display_fail_task $end
$upscope $end
$scope task display_pass_task $end
$upscope $end
$scope task input_task $end
$upscope $end
$scope task out_valid_wait_task $end
$upscope $end
$scope task reset_check_task $end
$upscope $end
$upscope $end
$scope module My_SP $end
$var wire 1 * clk $end
$var wire 1 ) in_valid $end
$var wire 32 B" inst [31:0] $end
$var wire 32 C" mem_dout [31:0] $end
$var wire 1 ! rst_n $end
$var wire 5 D" shamt_reg [4:0] $end
$var wire 5 E" shamt [4:0] $end
$var wire 5 F" rt_reg [4:0] $end
$var wire 5 G" rt [4:0] $end
$var wire 5 H" rs [4:0] $end
$var wire 5 I" rd_reg [4:0] $end
$var wire 5 J" rd [4:0] $end
$var wire 6 K" opcode_reg [5:0] $end
$var wire 6 L" opcode [5:0] $end
$var wire 26 M" jump_addr_reg [25:0] $end
$var wire 26 N" jump_addr [25:0] $end
$var wire 32 O" inst_nxt [31:0] $end
$var wire 16 P" imme_reg [15:0] $end
$var wire 16 Q" imme [15:0] $end
$var wire 6 R" func_reg [5:0] $end
$var wire 6 S" func [5:0] $end
$var wire 32 T" ZE_reg [31:0] $end
$var wire 32 U" ZE [31:0] $end
$var wire 32 V" SE_reg [31:0] $end
$var wire 32 W" SE [31:0] $end
$var reg 32 X" ALU_op1 [31:0] $end
$var reg 32 Y" ALU_op2 [31:0] $end
$var reg 32 Z" ALU_out [31:0] $end
$var reg 32 [" ALU_out_reg [31:0] $end
$var reg 32 \" inst_addr [31:0] $end
$var reg 32 ]" inst_addr_nxt [31:0] $end
$var reg 32 ^" inst_reg [31:0] $end
$var reg 12 _" mem_addr [11:0] $end
$var reg 32 `" mem_din [31:0] $end
$var reg 1 # mem_wen $end
$var reg 1 " out_valid $end
$var reg 1 a" out_valid_buf $end
$var integer 32 b" i [31:0] $end
$upscope $end
$upscope $end
$scope module TESTBED $end
$scope module My_SP $end
$var reg 32 c" \r[0] [31:0] $end
$upscope $end
$upscope $end
$scope module TESTBED $end
$scope module My_SP $end
$var reg 32 d" \r[1] [31:0] $end
$upscope $end
$upscope $end
$scope module TESTBED $end
$scope module My_SP $end
$var reg 32 e" \r[2] [31:0] $end
$upscope $end
$upscope $end
$scope module TESTBED $end
$scope module My_SP $end
$var reg 32 f" \r[3] [31:0] $end
$upscope $end
$upscope $end
$scope module TESTBED $end
$scope module My_SP $end
$var reg 32 g" \r[4] [31:0] $end
$upscope $end
$upscope $end
$scope module TESTBED $end
$scope module My_SP $end
$var reg 32 h" \r[5] [31:0] $end
$upscope $end
$upscope $end
$scope module TESTBED $end
$scope module My_SP $end
$var reg 32 i" \r[6] [31:0] $end
$upscope $end
$upscope $end
$scope module TESTBED $end
$scope module My_SP $end
$var reg 32 j" \r[7] [31:0] $end
$upscope $end
$upscope $end
$scope module TESTBED $end
$scope module My_SP $end
$var reg 32 k" \r[8] [31:0] $end
$upscope $end
$upscope $end
$scope module TESTBED $end
$scope module My_SP $end
$var reg 32 l" \r[9] [31:0] $end
$upscope $end
$upscope $end
$scope module TESTBED $end
$scope module My_SP $end
$var reg 32 m" \r[10] [31:0] $end
$upscope $end
$upscope $end
$scope module TESTBED $end
$scope module My_SP $end
$var reg 32 n" \r[11] [31:0] $end
$upscope $end
$upscope $end
$scope module TESTBED $end
$scope module My_SP $end
$var reg 32 o" \r[12] [31:0] $end
$upscope $end
$upscope $end
$scope module TESTBED $end
$scope module My_SP $end
$var reg 32 p" \r[13] [31:0] $end
$upscope $end
$upscope $end
$scope module TESTBED $end
$scope module My_SP $end
$var reg 32 q" \r[14] [31:0] $end
$upscope $end
$upscope $end
$scope module TESTBED $end
$scope module My_SP $end
$var reg 32 r" \r[15] [31:0] $end
$upscope $end
$upscope $end
$scope module TESTBED $end
$scope module My_SP $end
$var reg 32 s" \r[16] [31:0] $end
$upscope $end
$upscope $end
$scope module TESTBED $end
$scope module My_SP $end
$var reg 32 t" \r[17] [31:0] $end
$upscope $end
$upscope $end
$scope module TESTBED $end
$scope module My_SP $end
$var reg 32 u" \r[18] [31:0] $end
$upscope $end
$upscope $end
$scope module TESTBED $end
$scope module My_SP $end
$var reg 32 v" \r[19] [31:0] $end
$upscope $end
$upscope $end
$scope module TESTBED $end
$scope module My_SP $end
$var reg 32 w" \r[20] [31:0] $end
$upscope $end
$upscope $end
$scope module TESTBED $end
$scope module My_SP $end
$var reg 32 x" \r[21] [31:0] $end
$upscope $end
$upscope $end
$scope module TESTBED $end
$scope module My_SP $end
$var reg 32 y" \r[22] [31:0] $end
$upscope $end
$upscope $end
$scope module TESTBED $end
$scope module My_SP $end
$var reg 32 z" \r[23] [31:0] $end
$upscope $end
$upscope $end
$scope module TESTBED $end
$scope module My_SP $end
$var reg 32 {" \r[24] [31:0] $end
$upscope $end
$upscope $end
$scope module TESTBED $end
$scope module My_SP $end
$var reg 32 |" \r[25] [31:0] $end
$upscope $end
$upscope $end
$scope module TESTBED $end
$scope module My_SP $end
$var reg 32 }" \r[26] [31:0] $end
$upscope $end
$upscope $end
$scope module TESTBED $end
$scope module My_SP $end
$var reg 32 ~" \r[27] [31:0] $end
$upscope $end
$upscope $end
$scope module TESTBED $end
$scope module My_SP $end
$var reg 32 !# \r[28] [31:0] $end
$upscope $end
$upscope $end
$scope module TESTBED $end
$scope module My_SP $end
$var reg 32 "# \r[29] [31:0] $end
$upscope $end
$upscope $end
$scope module TESTBED $end
$scope module My_SP $end
$var reg 32 ## \r[30] [31:0] $end
$upscope $end
$upscope $end
$scope module TESTBED $end
$scope module My_SP $end
$var reg 32 $# \r[31] [31:0] $end
$upscope $end
$upscope $end
$enddefinitions $end
$comment Show the parameter values. $end
$dumpall
bx ?
b1000000000000 >
bx =
b1100 <
b100000 ;
$end
#0
$dumpvars
bx $#
bx ##
bx "#
bx !#
bx ~"
bx }"
bx |"
bx {"
bx z"
bx y"
bx x"
bx w"
bx v"
bx u"
bx t"
bx s"
bx r"
bx q"
bx p"
bx o"
bx n"
bx m"
bx l"
bx k"
bx j"
bx i"
bx h"
bx g"
bx f"
bx e"
bx d"
bx c"
b100000 b"
xa"
b0 `"
b0 _"
bx ^"
bx ]"
bx \"
bx ["
b0 Z"
b0 Y"
bx X"
bx W"
bx V"
b0xxxxxxxxxxxxxxxx U"
b0xxxxxxxxxxxxxxxx T"
bx S"
bx R"
bx Q"
bx P"
bx O"
bx N"
bx M"
bx L"
bx K"
bx J"
bx I"
bx H"
bx G"
bx F"
bx E"
bx D"
bx C"
bx B"
bx A"
bx @"
b1000000 ?"
bx >"
bx ="
bx <"
b1111101000 ;"
bx :"
b1010 9"
bx 8"
bx 7"
bx 6"
b100000 5"
b0 4"
bx 3"
bx 2"
r10 1"
bx 0"
bx /"
bx ."
bx -"
bx ,"
bx +"
bx *"
x)"
x("
bx '"
x&"
bx %"
x$"
x#"
x""
x!"
x~
x}
x|
x{
xz
xy
xx
xw
xv
xu
xt
xs
xr
xq
xp
xo
xn
xm
xl
xk
xj
xi
xh
xg
xf
xe
xd
xc
xb
bx a
x`
x_
x^
x]
x\
x[
xZ
xY
xX
xW
xV
xU
xT
xS
xR
xQ
bx P
xO
bx N
xM
bx L
bx K
xJ
bx I
xH
xG
xF
xE
bx D
0C
bx B
xA
bx @
b0 :
b0 9
bx 8
b0 7
b0 6
05
14
13
bx 2
01
00
0/
0.
0-
0,
b100000 +
0*
0)
bx (
bx '
b0 &
b0 %
bx $
1#
x"
1!
$end
#500
0*
#1000
b0 X"
b0 L"
b0 H"
b0 G"
b0 J"
b0 E"
b0 S"
b0 U"
b0 W"
b0 Q"
b0 N"
b0 O"
b0 K"
b0 F"
b0 I"
b0 D"
b0 R"
b0 T"
b0 V"
b0 P"
b0 M"
b0 ]"
b0 ["
b0 ^"
b0 $#
b0 ##
b0 "#
b0 !#
b0 ~"
b0 }"
b0 |"
b0 {"
b0 z"
b0 y"
b0 x"
b0 w"
b0 v"
b0 u"
b0 t"
b0 s"
b0 r"
b0 q"
b0 p"
b0 o"
b0 n"
b0 m"
b0 l"
b0 k"
b0 j"
b0 i"
b0 h"
b0 g"
b0 f"
b0 e"
b0 d"
b0 c"
b0 '
b0 /"
b0 \"
0a"
0"
b100000 b"
0!
#2000
b100000 5"
1!
#3000
b0 $#
b0 ##
b0 "#
b0 !#
b0 ~"
b0 }"
b0 |"
b0 {"
b0 z"
b0 y"
b0 x"
b0 w"
b0 v"
b0 u"
b0 t"
b0 s"
b0 r"
b0 q"
b0 p"
b0 o"
b0 n"
b0 m"
b0 l"
b0 k"
b0 j"
b0 i"
b0 h"
b0 g"
b0 f"
b0 e"
b0 d"
b0 c"
b11111111111111111111111111111101 $
b11111111111111111111111111111101 8
b11111111111111111111111111111101 C"
1C
b11111111111111111111111111111101 2
b11111111111111111111111111111101 %"
b0 '"
0)"
1("
b0 B
b0 @
1&"
0A
0M
1O
b0 N
b0 L
1/
b100000 b"
b11 A"
b10000110111001101000001 ?"
1*
#3500
0C
0/
0*
#4000
b0 $#
b0 ##
b0 "#
b0 !#
b0 ~"
b0 }"
b0 |"
b0 {"
b0 z"
b0 y"
b0 x"
b0 w"
b0 v"
b0 u"
b0 t"
b0 s"
b0 r"
b0 q"
b0 p"
b0 o"
b0 n"
b0 m"
b0 l"
b0 k"
b0 j"
b0 i"
b0 h"
b0 g"
b0 f"
b0 e"
b0 d"
b0 c"
1C
b11111111111111111111111111111101 K
1/
b100000 b"
1*
#4500
0C
0/
0*
#5000
b0 $#
b0 ##
b0 "#
b0 !#
b0 ~"
b0 }"
b0 |"
b0 {"
b0 z"
b0 y"
b0 x"
b0 w"
b0 v"
b0 u"
b0 t"
b0 s"
b0 r"
b0 q"
b0 p"
b0 o"
b0 n"
b0 m"
b0 l"
b0 k"
b0 j"
b0 i"
b0 h"
b0 g"
b0 f"
b0 e"
b0 d"
b0 c"
1C
1/
b100000 b"
1*
#5500
b111111111111 7
b111111111111 &
b111111111111 :
b111111111111 _"
b11111111111111111111111111111111 Z"
b1001 H"
b1 G"
b1010 J"
b110 S"
b101000000000110 U"
b101000000000110 W"
b101000000000110 Q"
b1001000010101000000000110 N"
0C
b100000 b"
b100 ]"
b1001000010101000000000110 O"
0/
1)
b1001000010101000000000110 (
b1001000010101000000000110 0"
b1001000010101000000000110 B"
b0 :"
0*
#6000
b1 F"
b1010 I"
b110 R"
b101000000000110 T"
b101000000000110 V"
b101000000000110 P"
b1001000010101000000000110 M"
b1000 ]"
b11111111111111111111111111111111 ["
b1001000010101000000000110 ^"
b0 $#
b0 ##
b0 "#
b0 !#
b0 ~"
b0 }"
b0 |"
b0 {"
b0 z"
b0 y"
b0 x"
b0 w"
b0 v"
b0 u"
b0 t"
b0 s"
b0 r"
b0 q"
b0 p"
b0 o"
b0 n"
b0 m"
b0 l"
b0 k"
b0 j"
b0 i"
b0 h"
b0 g"
b0 f"
b0 e"
b0 d"
b0 c"
b100 '
b100 /"
b100 \"
1a"
b101001 $
b101001 8
b101001 C"
1C
b101001 2
b101001 %"
b111111111111 '"
b111111111111 @
b111111111111 L
1/
b100000 b"
1*
#6500
b0 7
0C
b0 &
b0 :
b0 _"
b100000 b"
b0 Z"
b100 ]"
0/
b1 8"
0)
bx (
bx 0"
bx B"
0*
#7000
b0 ["
b0 $#
b0 ##
b0 "#
b0 !#
b0 ~"
b0 }"
b0 |"
b0 {"
b0 z"
b0 y"
b0 x"
b0 w"
b0 v"
b0 u"
b0 t"
b0 s"
b0 r"
b0 q"
b0 p"
b0 o"
b0 n"
b11111111111111111111111111111111 m"
b0 l"
b0 k"
b0 j"
b0 i"
b0 h"
b0 g"
b0 f"
b0 e"
b0 d"
b0 c"
0a"
1"
b11111111111111111111111111111101 $
b11111111111111111111111111111101 8
b11111111111111111111111111111101 C"
1C
b11111111111111111111111111111101 2
b11111111111111111111111111111101 %"
b0 '"
b0 @
b101001 K
b0 L
1/
b100000 b"
1*
#7500
0C
0/
b100000 5"
b100 4"
b1001000010101000000000110 2"
b101000000000110 6"
b110 3"
b0 @"
b1010 <"
b1 >"
b1001 ="
b0 7"
0*
#8000
b0 $#
b0 ##
b0 "#
b0 !#
b0 ~"
b0 }"
b0 |"
b0 {"
b0 z"
b0 y"
b0 x"
b0 w"
b0 v"
b0 u"
b0 t"
b0 s"
b0 r"
b0 q"
b0 p"
b0 o"
b0 n"
b11111111111111111111111111111111 m"
b0 l"
b0 k"
b0 j"
b0 i"
b0 h"
b0 g"
b0 f"
b0 e"
b0 d"
b0 c"
0"
1C
b11111111111111111111111111111101 K
1/
b100000 b"
1*
#8500
b111100111100 7
b111100111100 Y"
b101 L"
b0 H"
b0 G"
b1 J"
b11100 E"
b111100 S"
b111100111100 U"
b111100111100 W"
b111100111100 Q"
b111100111100 N"
0C
b111100111100 &
b111100111100 :
b111100111100 _"
b100000 b"
b111100111100 Z"
b1000 ]"
b10100000000000000111100111100 O"
0/
1)
b10100000000000000111100111100 (
b10100000000000000111100111100 0"
b10100000000000000111100111100 B"
b1 :"
0*
#9000
b101 K"
b0 F"
b1 I"
b11100 D"
b111100 R"
b111100111100 T"
b111100111100 V"
b111100111100 P"
b111100111100 M"
b1100 ]"
b111100111100 ["
b10100000000000000111100111100 ^"
b0 $#
b0 ##
b0 "#
b0 !#
b0 ~"
b0 }"
b0 |"
b0 {"
b0 z"
b0 y"
b0 x"
b0 w"
b0 v"
b0 u"
b0 t"
b0 s"
b0 r"
b0 q"
b0 p"
b0 o"
b0 n"
b11111111111111111111111111111111 m"
b0 l"
b0 k"
b0 j"
b0 i"
b0 h"
b0 g"
b0 f"
b0 e"
b0 d"
b0 c"
b1000 '
b1000 /"
b1000 \"
1a"
b1100 $
b1100 8
b1100 C"
1C
b1100 2
b1100 %"
b111100111100 '"
b111100111100 @
b111100111100 L
1/
b100000 b"
1*
#9500
b0 7
0C
b0 &
b0 :
b0 _"
b100000 b"
b0 Z"
b1000 ]"
0/
b1 8"
0)
bx (
bx 0"
bx B"
0*
#10000
b111100111100 Y"
b1100 X"
b0 ["
b0 $#
b0 ##
b0 "#
b0 !#
b0 ~"
b0 }"
b0 |"
b0 {"
b0 z"
b0 y"
b0 x"
b0 w"
b0 v"
b0 u"
b0 t"
b0 s"
b0 r"
b0 q"
b0 p"
b0 o"
b0 n"
b11111111111111111111111111111111 m"
b0 l"
b0 k"
b0 j"
b0 i"
b0 h"
b0 g"
b0 f"
b0 e"
b0 d"
b1100 c"
0a"
1"
b11111111111111111111111111111101 $
b11111111111111111111111111111101 8
b11111111111111111111111111111101 C"
1C
b11111111111111111111111111111101 2
b11111111111111111111111111111101 %"
b0 '"
b0 @
b1100 K
b0 L
1/
b100000 b"
1*
#10500
0C
0/
b100000 5"
b1000 4"
b111100111100 2"
b111100111100 6"
b111100 3"
b11100 @"
b1 <"
b0 >"
b0 ="
b101 7"
0*
#11000
b0 $#
b0 ##
b0 "#
b0 !#
b0 ~"
b0 }"
b0 |"
b0 {"
b0 z"
b0 y"
b0 x"
b0 w"
b0 v"
b0 u"
b0 t"
b0 s"
b0 r"
b0 q"
b0 p"
b0 o"
b0 n"
b11111111111111111111111111111111 m"
b0 l"
b0 k"
b0 j"
b0 i"
b0 h"
b0 g"
b0 f"
b0 e"
b0 d"
b1100 c"
0"
1C
b11111111111111111111111111111101 K
1/
b100000 b"
1*
#11500
b0 7
b0 Y"
b1001 L"
b10110 G"
b0 J"
b0 E"
b10100 S"
b10100 U"
b10100 W"
b10100 Q"
b101100000000000010100 N"
0C
b0 &
b0 :
b0 _"
b100000 b"
b0 Z"
b1100 ]"
b100100000101100000000000010100 O"
0/
1)
b100100000101100000000000010100 (
b100100000101100000000000010100 0"
b100100000101100000000000010100 B"
b10 :"
0*
#12000
b1001 K"
b10110 F"
b0 I"
b0 D"
b10100 R"
b10100 T"
b10100 V"
b10100 P"
b101100000000000010100 M"
b10000 ]"
b100100000101100000000000010100 ^"
b0 $#
b0 ##
b0 "#
b0 !#
b0 ~"
b0 }"
b0 |"
b0 {"
b0 z"
b0 y"
b0 x"
b0 w"
b0 v"
b0 u"
b0 t"
b0 s"
b0 r"
b0 q"
b0 p"
b0 o"
b0 n"
b11111111111111111111111111111111 m"
b0 l"
b0 k"
b0 j"
b0 i"
b0 h"
b0 g"
b0 f"
b0 e"
b0 d"
b1100 c"
b1100 '
b1100 /"
b1100 \"
1a"
1C
1/
b100000 b"
1*
#12500
0C
b100000 b"
b1100 ]"
0/
b1 8"
0)
bx (
bx 0"
bx B"
0*
#13000
b0 $#
b0 ##
b0 "#
b0 !#
b0 ~"
b0 }"
b0 |"
b0 {"
b0 z"
b101000000000000000000 y"
b0 x"
b0 w"
b0 v"
b0 u"
b0 t"
b0 s"
b0 r"
b0 q"
b0 p"
b0 o"
b0 n"
b11111111111111111111111111111111 m"
b0 l"
b0 k"
b0 j"
b0 i"
b0 h"
b0 g"
b0 f"
b0 e"
b0 d"
b1100 c"
0a"
1"
1C
1/
b100000 b"
1*
#13500
0C
0/
b100000 5"
b1100 4"
b101100000000000010100 2"
b10100 6"
b10100 3"
b0 @"
b0 <"
b10110 >"
b1001 7"
0*
#14000
b0 $#
b0 ##
b0 "#
b0 !#
b0 ~"
b0 }"
b0 |"
b0 {"
b0 z"
b101000000000000000000 y"
b0 x"
b0 w"
b0 v"
b0 u"
b0 t"
b0 s"
b0 r"
b0 q"
b0 p"
b0 o"
b0 n"
b11111111111111111111111111111111 m"
b0 l"
b0 k"
b0 j"
b0 i"
b0 h"
b0 g"
b0 f"
b0 e"
b0 d"
b1100 c"
0"
1C
1/
b100000 b"
1*
#14500
b1111111110 7
b1111111110 &
b1111111110 :
b1111111110 _"
b1111111110 Z"
b1111111110 Y"
b0 X"
b101 L"
b1 H"
b1 G"
b1111 E"
b111110 S"
b1111111110 U"
b1111111110 W"
b1111111110 Q"
b1000010000001111111110 N"
0C
b100000 b"
b10000 ]"
b10100001000010000001111111110 O"
0/
1)
b10100001000010000001111111110 (
b10100001000010000001111111110 0"
b10100001000010000001111111110 B"
b11 :"
0*
#15000
b101 K"
b1 F"
b1111 D"
b111110 R"
b1111111110 T"
b1111111110 V"
b1111111110 P"
b1000010000001111111110 M"
b10100 ]"
b1111111110 ["
b10100001000010000001111111110 ^"
b0 $#
b0 ##
b0 "#
b0 !#
b0 ~"
b0 }"
b0 |"
b0 {"
b0 z"
b101000000000000000000 y"
b0 x"
b0 w"
b0 v"
b0 u"
b0 t"
b0 s"
b0 r"
b0 q"
b0 p"
b0 o"
b0 n"
b11111111111111111111111111111111 m"
b0 l"
b0 k"
b0 j"
b0 i"
b0 h"
b0 g"
b0 f"
b0 e"
b0 d"
b1100 c"
b10000 '
b10000 /"
b10000 \"
1a"
b0 $
b0 8
b0 C"
1C
b0 2
b0 %"
b1111111110 '"
b1111111110 @
b1111111110 L
1/
b100000 b"
1*
#15500
b0 7
0C
b0 &
b0 :
b0 _"
b100000 b"
b0 Z"
b10000 ]"
0/
b1 8"
0)
bx (
bx 0"
bx B"
0*
#16000
b0 ["
b0 $#
b0 ##
b0 "#
b0 !#
b0 ~"
b0 }"
b0 |"
b0 {"
b0 z"
b101000000000000000000 y"
b0 x"
b0 w"
b0 v"
b0 u"
b0 t"
b0 s"
b0 r"
b0 q"
b0 p"
b0 o"
b0 n"
b11111111111111111111111111111111 m"
b0 l"
b0 k"
b0 j"
b0 i"
b0 h"
b0 g"
b0 f"
b0 e"
b0 d"
b1100 c"
0a"
1"
b11111111111111111111111111111101 $
b11111111111111111111111111111101 8
b11111111111111111111111111111101 C"
1C
b11111111111111111111111111111101 2
b11111111111111111111111111111101 %"
b0 '"
b0 @
b0 K
b0 L
1/
b100000 b"
1*
#16500
0C
0/
b100000 5"
b10000 4"
b1000010000001111111110 2"
b1111111110 6"
b111110 3"
b1111 @"
b1 >"
b1 ="
b101 7"
0*
#17000
b0 $#
b0 ##
b0 "#
b0 !#
b0 ~"
b0 }"
b0 |"
b0 {"
b0 z"
b101000000000000000000 y"
b0 x"
b0 w"
b0 v"
b0 u"
b0 t"
b0 s"
b0 r"
b0 q"
b0 p"
b0 o"
b0 n"
b11111111111111111111111111111111 m"
b0 l"
b0 k"
b0 j"
b0 i"
b0 h"
b0 g"
b0 f"
b0 e"
b0 d"
b1100 c"
0"
1C
b11111111111111111111111111111101 K
1/
b100000 b"
1*
#17500
b110011101101 7
b110011101101 Y"
b10 H"
b10 G"
b1 J"
b10011 E"
b101101 S"
b110011101101 U"
b110011101101 W"
b110011101101 Q"
b10000100000110011101101 N"
0C
b110011101101 &
b110011101101 :
b110011101101 _"
b100000 b"
b110011101101 Z"
b10100 ]"
b10100010000100000110011101101 O"
0/
1)
b10100010000100000110011101101 (
b10100010000100000110011101101 0"
b10100010000100000110011101101 B"
b100 :"
0*
#18000
b10 F"
b1 I"
b10011 D"
b101101 R"
b110011101101 T"
b110011101101 V"
b110011101101 P"
b10000100000110011101101 M"
b11000 ]"
b110011101101 ["
b10100010000100000110011101101 ^"
b0 $#
b0 ##
b0 "#
b0 !#
b0 ~"
b0 }"
b0 |"
b0 {"
b0 z"
b101000000000000000000 y"
b0 x"
b0 w"
b0 v"
b0 u"
b0 t"
b0 s"
b0 r"
b0 q"
b0 p"
b0 o"
b0 n"
b11111111111111111111111111111111 m"
b0 l"
b0 k"
b0 j"
b0 i"
b0 h"
b0 g"
b0 f"
b0 e"
b0 d"
b1100 c"
b10100 '
b10100 /"
b10100 \"
1a"
b11100 $
b11100 8
b11100 C"
1C
b11100 2
b11100 %"
b110011101101 '"
b110011101101 @
b110011101101 L
1/
b100000 b"
1*
#18500
b0 7
0C
b0 &
b0 :
b0 _"
b100000 b"
b0 Z"
b10100 ]"
0/
b1 8"
0)
bx (
bx 0"
bx B"
0*
#19000
b110011101101 Y"
b11100 X"
b0 ["
b0 $#
b0 ##
b0 "#
b0 !#
b0 ~"
b0 }"
b0 |"
b0 {"
b0 z"
b101000000000000000000 y"
b0 x"
b0 w"
b0 v"
b0 u"
b0 t"
b0 s"
b0 r"
b0 q"
b0 p"
b0 o"
b0 n"
b11111111111111111111111111111111 m"
b0 l"
b0 k"
b0 j"
b0 i"
b0 h"
b0 g"
b0 f"
b11100 e"
b0 d"
b1100 c"
0a"
1"
b11111111111111111111111111111101 $
b11111111111111111111111111111101 8
b11111111111111111111111111111101 C"
1C
b11111111111111111111111111111101 2
b11111111111111111111111111111101 %"
b0 '"
b0 @
b11100 K
b0 L
1/
b100000 b"
1*
#19500
0C
0/
b100000 5"
b10100 4"
b10000100000110011101101 2"
b110011101101 6"
b101101 3"
b10011 @"
b1 <"
b10 >"
b10 ="
0*
#20000
b0 $#
b0 ##
b0 "#
b0 !#
b0 ~"
b0 }"
b0 |"
b0 {"
b0 z"
b101000000000000000000 y"
b0 x"
b0 w"
b0 v"
b0 u"
b0 t"
b0 s"
b0 r"
b0 q"
b0 p"
b0 o"
b0 n"
b11111111111111111111111111111111 m"
b0 l"
b0 k"
b0 j"
b0 i"
b0 h"
b0 g"
b0 f"
b11100 e"
b0 d"
b1100 c"
0"
1C
b11111111111111111111111111111101 K
1/
b100000 b"
1*
#20500
b10001010 7
b10001010 Y"
b0 X"
b11 H"
b11 G"
b0 J"
b10 E"
b1010 S"
b10001010 U"
b10001010 W"
b10001010 Q"
b11000110000000010001010 N"
0C
b10001010 &
b10001010 :
b10001010 _"
b100000 b"
b10001010 Z"
b11000 ]"
b10100011000110000000010001010 O"
0/
1)
b10100011000110000000010001010 (
b10100011000110000000010001010 0"
b10100011000110000000010001010 B"
b101 :"
0*
