SP_p.vcd
$date
	Sat Dec 30 01:01:09 2023
$end
$version
	Icarus Verilog
$end
$timescale
	10ps
$end
$scope module TESTBED $end
$var wire 1 ! rst_n $end
$var wire 1 " out_valid $end
$var wire 1 # mem_wen $end
$var wire 32 $ mem_dout [31:0] $end
$var wire 32 % mem_din [31:0] $end
$var wire 12 & mem_addr [11:0] $end
$var wire 32 ' inst_addr [31:0] $end
$var wire 32 ( inst [31:0] $end
$var wire 1 ) in_valid $end
$var wire 1 * clk $end
$var integer 32 + i [31:0] $end
$scope module My_MEM $end
$var wire 1 , CEN $end
$var wire 1 - OEN $end
$var wire 1 . _CEN $end
$var wire 1 / _CLK $end
$var wire 1 0 _OEN $end
$var wire 1 1 _OENi $end
$var wire 32 2 _Q [31:0] $end
$var wire 1 3 _WEN $end
$var wire 1 4 re_flag $end
$var wire 1 5 re_data_flag $end
$var wire 32 6 _D [31:0] $end
$var wire 12 7 _A [11:0] $end
$var wire 1 # WEN $end
$var wire 32 8 Q [31:0] $end
$var wire 32 9 D [31:0] $end
$var wire 1 * CLK $end
$var wire 12 : A [11:0] $end
$var parameter 32 ; BITS $end
$var parameter 32 < addr_width $end
$var parameter 12 = addrx $end
$var parameter 32 > word_depth $end
$var parameter 32 ? wordx $end
$var reg 12 @ Ai [11:0] $end
$var reg 1 A CENi $end
$var reg 32 B Di [31:0] $end
$var reg 1 C LAST_CLK $end
$var reg 12 D LAST_NOT_A [11:0] $end
$var reg 1 E LAST_NOT_CEN $end
$var reg 1 F LAST_NOT_CLK_MINH $end
$var reg 1 G LAST_NOT_CLK_MINL $end
$var reg 1 H LAST_NOT_CLK_PER $end
$var reg 32 I LAST_NOT_D [31:0] $end
$var reg 1 J LAST_NOT_WEN $end
$var reg 32 K LAST_Qi [31:0] $end
$var reg 12 L LATCHED_A [11:0] $end
$var reg 1 M LATCHED_CEN $end
$var reg 32 N LATCHED_D [31:0] $end
$var reg 1 O LATCHED_WEN $end
$var reg 12 P NOT_A [11:0] $end
$var reg 1 Q NOT_A0 $end
$var reg 1 R NOT_A1 $end
$var reg 1 S NOT_A10 $end
$var reg 1 T NOT_A11 $end
$var reg 1 U NOT_A2 $end
$var reg 1 V NOT_A3 $end
$var reg 1 W NOT_A4 $end
$var reg 1 X NOT_A5 $end
$var reg 1 Y NOT_A6 $end
$var reg 1 Z NOT_A7 $end
$var reg 1 [ NOT_A8 $end
$var reg 1 \ NOT_A9 $end
$var reg 1 ] NOT_CEN $end
$var reg 1 ^ NOT_CLK_MINH $end
$var reg 1 _ NOT_CLK_MINL $end
$var reg 1 ` NOT_CLK_PER $end
$var reg 32 a NOT_D [31:0] $end
$var reg 1 b NOT_D0 $end
$var reg 1 c NOT_D1 $end
$var reg 1 d NOT_D10 $end
$var reg 1 e NOT_D11 $end
$var reg 1 f NOT_D12 $end
$var reg 1 g NOT_D13 $end
$var reg 1 h NOT_D14 $end
$var reg 1 i NOT_D15 $end
$var reg 1 j NOT_D16 $end
$var reg 1 k NOT_D17 $end
$var reg 1 l NOT_D18 $end
$var reg 1 m NOT_D19 $end
$var reg 1 n NOT_D2 $end
$var reg 1 o NOT_D20 $end
$var reg 1 p NOT_D21 $end
$var reg 1 q NOT_D22 $end
$var reg 1 r NOT_D23 $end
$var reg 1 s NOT_D24 $end
$var reg 1 t NOT_D25 $end
$var reg 1 u NOT_D26 $end
$var reg 1 v NOT_D27 $end
$var reg 1 w NOT_D28 $end
$var reg 1 x NOT_D29 $end
$var reg 1 y NOT_D3 $end
$var reg 1 z NOT_D30 $end
$var reg 1 { NOT_D31 $end
$var reg 1 | NOT_D4 $end
$var reg 1 } NOT_D5 $end
$var reg 1 ~ NOT_D6 $end
$var reg 1 !" NOT_D7 $end
$var reg 1 "" NOT_D8 $end
$var reg 1 #" NOT_D9 $end
$var reg 1 $" NOT_WEN $end
$var reg 32 %" Qi [31:0] $end
$var reg 1 &" WENi $end
$scope function valid_address $end
$var reg 12 '" a [11:0] $end
$upscope $end
$scope task latch_inputs $end
$upscope $end
$scope task mem_cycle $end
$upscope $end
$scope task process_violations $end
$upscope $end
$scope task read_mem $end
$var reg 1 (" r_wb $end
$var reg 1 )" xflag $end
$upscope $end
$scope task update_last_notifiers $end
$upscope $end
$scope task update_logic $end
$upscope $end
$scope task update_notifier_buses $end
$upscope $end
$scope task write_mem $end
$var reg 12 *" a [11:0] $end
$var reg 32 +" d [31:0] $end
$upscope $end
$scope task write_mem_x $end
$var reg 12 ," a [11:0] $end
$upscope $end
$scope task x_inputs $end
$var integer 32 -" n [31:0] $end
$upscope $end
$scope task x_mem $end
$var integer 32 ." n [31:0] $end
$upscope $end
$upscope $end
$scope module My_PATTERN $end
$var wire 1 " out_valid $end
$var wire 32 /" inst_addr [31:0] $end
$var reg 1 * clk $end
$var reg 1 ) in_valid $end
$var reg 32 0" inst [31:0] $end
$var reg 1 ! rst_n $end
$var real 1 1" CYCLE $end
$var integer 32 2" address [31:0] $end
$var integer 32 3" execution_num [31:0] $end
$var integer 32 4" func [31:0] $end
$var integer 32 5" golden_inst_addr_in [31:0] $end
$var integer 32 6" golden_inst_addr_out [31:0] $end
$var integer 32 7" i [31:0] $end
$var integer 32 8" immediate [31:0] $end
$var integer 32 9" in_valid_counter [31:0] $end
$var integer 32 :" latency [31:0] $end
$var integer 32 ;" opcode [31:0] $end
$var integer 32 <" out_max_latency [31:0] $end
$var integer 32 =" out_valid_counter [31:0] $end
$var integer 32 >" pat [31:0] $end
$var integer 32 ?" rd [31:0] $end
$var integer 32 @" rs [31:0] $end
$var integer 32 A" rt [31:0] $end
$var integer 32 B" seed [31:0] $end
$var integer 32 C" shamt [31:0] $end
$var integer 32 D" t [31:0] $end
$scope task check_ans_task $end
$upscope $end
$scope task check_memory_and_out_valid $end
$upscope $end
$scope task display_fail_task $end
$upscope $end
$scope task display_pass_task $end
$upscope $end
$scope task input_task $end
$upscope $end
$scope task reset_check_task $end
$upscope $end
$upscope $end
$scope module My_SP $end
$var wire 1 * clk $end
$var wire 1 ) in_valid $end
$var wire 32 E" inst [31:0] $end
$var wire 32 F" mem_dout [31:0] $end
$var wire 1 ! rst_n $end
$var wire 5 G" shamt_reg [4:0] $end
$var wire 5 H" shamt [4:0] $end
$var wire 5 I" rt_reg [4:0] $end
$var wire 5 J" rt [4:0] $end
$var wire 5 K" rs_reg [4:0] $end
$var wire 5 L" rs [4:0] $end
$var wire 5 M" rd_reg [4:0] $end
$var wire 5 N" rd [4:0] $end
$var wire 6 O" opcode_reg [5:0] $end
$var wire 6 P" opcode [5:0] $end
$var wire 26 Q" jump_addr_reg [25:0] $end
$var wire 26 R" jump_addr [25:0] $end
$var wire 32 S" inst_nxt [31:0] $end
$var wire 16 T" imme_reg [15:0] $end
$var wire 16 U" imme [15:0] $end
$var wire 6 V" func_reg [5:0] $end
$var wire 6 W" func [5:0] $end
$var wire 32 X" ZE_reg [31:0] $end
$var wire 32 Y" ZE [31:0] $end
$var wire 32 Z" SE_reg [31:0] $end
$var wire 32 [" SE [31:0] $end
$var reg 32 \" ALU_op1 [31:0] $end
$var reg 32 ]" ALU_op2 [31:0] $end
$var reg 32 ^" ALU_out [31:0] $end
$var reg 32 _" ALU_out_reg [31:0] $end
$var reg 32 `" inst_addr [31:0] $end
$var reg 32 a" inst_addr_nxt [31:0] $end
$var reg 32 b" inst_addr_reg [31:0] $end
$var reg 32 c" inst_reg [31:0] $end
$var reg 12 d" mem_addr [11:0] $end
$var reg 32 e" mem_din [31:0] $end
$var reg 1 # mem_wen $end
$var reg 1 " out_valid $end
$var reg 1 f" out_valid_buf $end
$var integer 32 g" i [31:0] $end
$upscope $end
$upscope $end
$scope module TESTBED $end
$scope module My_SP $end
$var reg 32 h" \r[0] [31:0] $end
$upscope $end
$upscope $end
$scope module TESTBED $end
$scope module My_SP $end
$var reg 32 i" \r[1] [31:0] $end
$upscope $end
$upscope $end
$scope module TESTBED $end
$scope module My_SP $end
$var reg 32 j" \r[2] [31:0] $end
$upscope $end
$upscope $end
$scope module TESTBED $end
$scope module My_SP $end
$var reg 32 k" \r[3] [31:0] $end
$upscope $end
$upscope $end
$scope module TESTBED $end
$scope module My_SP $end
$var reg 32 l" \r[4] [31:0] $end
$upscope $end
$upscope $end
$scope module TESTBED $end
$scope module My_SP $end
$var reg 32 m" \r[5] [31:0] $end
$upscope $end
$upscope $end
$scope module TESTBED $end
$scope module My_SP $end
$var reg 32 n" \r[6] [31:0] $end
$upscope $end
$upscope $end
$scope module TESTBED $end
$scope module My_SP $end
$var reg 32 o" \r[7] [31:0] $end
$upscope $end
$upscope $end
$scope module TESTBED $end
$scope module My_SP $end
$var reg 32 p" \r[8] [31:0] $end
$upscope $end
$upscope $end
$scope module TESTBED $end
$scope module My_SP $end
$var reg 32 q" \r[9] [31:0] $end
$upscope $end
$upscope $end
$scope module TESTBED $end
$scope module My_SP $end
$var reg 32 r" \r[10] [31:0] $end
$upscope $end
$upscope $end
$scope module TESTBED $end
$scope module My_SP $end
$var reg 32 s" \r[11] [31:0] $end
$upscope $end
$upscope $end
$scope module TESTBED $end
$scope module My_SP $end
$var reg 32 t" \r[12] [31:0] $end
$upscope $end
$upscope $end
$scope module TESTBED $end
$scope module My_SP $end
$var reg 32 u" \r[13] [31:0] $end
$upscope $end
$upscope $end
$scope module TESTBED $end
$scope module My_SP $end
$var reg 32 v" \r[14] [31:0] $end
$upscope $end
$upscope $end
$scope module TESTBED $end
$scope module My_SP $end
$var reg 32 w" \r[15] [31:0] $end
$upscope $end
$upscope $end
$scope module TESTBED $end
$scope module My_SP $end
$var reg 32 x" \r[16] [31:0] $end
$upscope $end
$upscope $end
$scope module TESTBED $end
$scope module My_SP $end
$var reg 32 y" \r[17] [31:0] $end
$upscope $end
$upscope $end
$scope module TESTBED $end
$scope module My_SP $end
$var reg 32 z" \r[18] [31:0] $end
$upscope $end
$upscope $end
$scope module TESTBED $end
$scope module My_SP $end
$var reg 32 {" \r[19] [31:0] $end
$upscope $end
$upscope $end
$scope module TESTBED $end
$scope module My_SP $end
$var reg 32 |" \r[20] [31:0] $end
$upscope $end
$upscope $end
$scope module TESTBED $end
$scope module My_SP $end
$var reg 32 }" \r[21] [31:0] $end
$upscope $end
$upscope $end
$scope module TESTBED $end
$scope module My_SP $end
$var reg 32 ~" \r[22] [31:0] $end
$upscope $end
$upscope $end
$scope module TESTBED $end
$scope module My_SP $end
$var reg 32 !# \r[23] [31:0] $end
$upscope $end
$upscope $end
$scope module TESTBED $end
$scope module My_SP $end
$var reg 32 "# \r[24] [31:0] $end
$upscope $end
$upscope $end
$scope module TESTBED $end
$scope module My_SP $end
$var reg 32 ## \r[25] [31:0] $end
$upscope $end
$upscope $end
$scope module TESTBED $end
$scope module My_SP $end
$var reg 32 $# \r[26] [31:0] $end
$upscope $end
$upscope $end
$scope module TESTBED $end
$scope module My_SP $end
$var reg 32 %# \r[27] [31:0] $end
$upscope $end
$upscope $end
$scope module TESTBED $end
$scope module My_SP $end
$var reg 32 &# \r[28] [31:0] $end
$upscope $end
$upscope $end
$scope module TESTBED $end
$scope module My_SP $end
$var reg 32 '# \r[29] [31:0] $end
$upscope $end
$upscope $end
$scope module TESTBED $end
$scope module My_SP $end
$var reg 32 (# \r[30] [31:0] $end
$upscope $end
$upscope $end
$scope module TESTBED $end
$scope module My_SP $end
$var reg 32 )# \r[31] [31:0] $end
$upscope $end
$upscope $end
$enddefinitions $end
$comment Show the parameter values. $end
$dumpall
bx ?
b1000000000000 >
bx =
b1100 <
b100000 ;
$end
#0
$dumpvars
bx )#
bx (#
bx '#
bx &#
bx %#
bx $#
bx ##
bx "#
bx !#
bx ~"
bx }"
bx |"
bx {"
bx z"
bx y"
bx x"
bx w"
bx v"
bx u"
bx t"
bx s"
bx r"
bx q"
bx p"
bx o"
bx n"
bx m"
bx l"
bx k"
bx j"
bx i"
bx h"
bx g"
xf"
b0 e"
b0 d"
bx c"
bx b"
bx a"
bx `"
bx _"
b0 ^"
b0 ]"
bx \"
bx ["
bx Z"
b0xxxxxxxxxxxxxxxx Y"
b0xxxxxxxxxxxxxxxx X"
bx W"
bx V"
bx U"
bx T"
bx S"
bx R"
bx Q"
bx P"
bx O"
bx N"
bx M"
bx L"
bx K"
bx J"
bx I"
bx H"
bx G"
bx F"
bx E"
bx D"
bx C"
b1000000 B"
bx A"
bx @"
bx ?"
bx >"
b0 ="
b1010 <"
bx ;"
b11111111111111111111111111111111 :"
b0 9"
bx 8"
b100000 7"
b0 6"
b0 5"
bx 4"
b1111101000 3"
bx 2"
r10 1"
bx 0"
bx /"
bx ."
bx -"
bx ,"
bx +"
bx *"
x)"
x("
bx '"
x&"
bx %"
x$"
x#"
x""
x!"
x~
x}
x|
x{
xz
xy
xx
xw
xv
xu
xt
xs
xr
xq
xp
xo
xn
xm
xl
xk
xj
xi
xh
xg
xf
xe
xd
xc
xb
bx a
x`
x_
x^
x]
x\
x[
xZ
xY
xX
xW
xV
xU
xT
xS
xR
xQ
bx P
xO
bx N
xM
bx L
bx K
xJ
bx I
xH
xG
xF
xE
bx D
0C
bx B
xA
bx @
b0 :
b0 9
bx 8
b0 7
b0 6
05
14
13
bx 2
01
00
0/
0.
0-
0,
b100000 +
0*
0)
bx (
bx '
b0 &
b0 %
bx $
1#
x"
1!
$end
#500
0*
#1000
b0 \"
b0 P"
b0 L"
b0 J"
b0 N"
b0 H"
b0 W"
b0 Y"
b0 ["
b0 U"
b0 R"
b0 S"
b0 O"
b0 K"
b0 I"
b0 M"
b0 G"
b0 V"
b0 X"
b0 Z"
b0 T"
b0 Q"
b0 a"
b0 _"
b0 c"
b0 )#
b0 (#
b0 '#
b0 &#
b0 %#
b0 $#
b0 ##
b0 "#
b0 !#
b0 ~"
b0 }"
b0 |"
b0 {"
b0 z"
b0 y"
b0 x"
b0 w"
b0 v"
b0 u"
b0 t"
b0 s"
b0 r"
b0 q"
b0 p"
b0 o"
b0 n"
b0 m"
b0 l"
b0 k"
b0 j"
b0 i"
b0 h"
b0 b"
b0 '
b0 /"
b0 `"
0f"
0"
b100000 g"
0!
#2000
b100000 7"
1!
#3000
b0 )#
b0 (#
b0 '#
b0 &#
b0 %#
b0 $#
b0 ##
b0 "#
b0 !#
b0 ~"
b0 }"
b0 |"
b0 {"
b0 z"
b0 y"
b0 x"
b0 w"
b0 v"
b0 u"
b0 t"
b0 s"
b0 r"
b0 q"
b0 p"
b0 o"
b0 n"
b0 m"
b0 l"
b0 k"
b0 j"
b0 i"
b0 h"
b11111111111111111111111111111101 $
b11111111111111111111111111111101 8
b11111111111111111111111111111101 F"
1C
b11111111111111111111111111111101 2
b11111111111111111111111111111101 %"
b0 '"
0)"
1("
b0 B
b0 @
1&"
0A
0M
1O
b0 N
b0 L
1/
b100000 g"
b11 D"
b10000110111001101000001 B"
1*
#3500
0C
0/
0*
#4000
b0 )#
b0 (#
b0 '#
b0 &#
b0 %#
b0 $#
b0 ##
b0 "#
b0 !#
b0 ~"
b0 }"
b0 |"
b0 {"
b0 z"
b0 y"
b0 x"
b0 w"
b0 v"
b0 u"
b0 t"
b0 s"
b0 r"
b0 q"
b0 p"
b0 o"
b0 n"
b0 m"
b0 l"
b0 k"
b0 j"
b0 i"
b0 h"
1C
b11111111111111111111111111111101 K
1/
b100000 g"
1*
#4500
0C
0/
0*
#5000
b0 )#
b0 (#
b0 '#
b0 &#
b0 %#
b0 $#
b0 ##
b0 "#
b0 !#
b0 ~"
b0 }"
b0 |"
b0 {"
b0 z"
b0 y"
b0 x"
b0 w"
b0 v"
b0 u"
b0 t"
b0 s"
b0 r"
b0 q"
b0 p"
b0 o"
b0 n"
b0 m"
b0 l"
b0 k"
b0 j"
b0 i"
b0 h"
1C
1/
b100000 g"
1*
#5500
b111111111111 7
b111111111111 &
b111111111111 :
b111111111111 d"
b11111111111111111111111111111111 ^"
b1001 L"
b1 J"
b1010 N"
b110 W"
b101000000000110 Y"
b101000000000110 ["
b101000000000110 U"
b1001000010101000000000110 R"
0C
b100 a"
b1001000010101000000000110 S"
0/
b0 :"
b1 9"
b100 5"
b1001000010101000000000110 2"
b110 4"
b101000000000110 8"
b1 A"
b1001 @"
b0 ;"
1)
b1001000010101000000000110 (
b1001000010101000000000110 0"
b1001000010101000000000110 E"
0*
#6000
b1001 K"
b1 I"
b1010 M"
b110 V"
b101000000000110 X"
b101000000000110 Z"
b101000000000110 T"
b1001000010101000000000110 Q"
b1000 a"
b11111111111111111111111111111111 _"
b1001000010101000000000110 c"
b0 )#
b0 (#
b0 '#
b0 &#
b0 %#
b0 $#
b0 ##
b0 "#
b0 !#
b0 ~"
b0 }"
b0 |"
b0 {"
b0 z"
b0 y"
b0 x"
b0 w"
b0 v"
b0 u"
b0 t"
b0 s"
b0 r"
b0 q"
b0 p"
b0 o"
b0 n"
b0 m"
b0 l"
b0 k"
b0 j"
b0 i"
b0 h"
b100 '
b100 /"
b100 `"
1f"
b101001 $
b101001 8
b101001 F"
1C
b101001 2
b101001 %"
b111111111111 '"
b111111111111 @
b111111111111 L
1/
b100000 g"
1*
#6500
b111100111100 7
b111100111100 &
b111100111100 :
b111100111100 d"
b111100111100 ^"
b111100111100 ]"
b1000 a"
b101 P"
b0 L"
b0 J"
b1 N"
b11100 H"
b111100 W"
b111100111100 Y"
b111100111100 ["
b111100111100 U"
b111100111100 R"
0C
b10100000000000000111100111100 S"
0/
b1 :"
b10 9"
b1000 5"
b111100111100 2"
b111100 4"
b111100111100 8"
b0 A"
b0 @"
b101 ;"
b10100000000000000111100111100 (
b10100000000000000111100111100 0"
b10100000000000000111100111100 E"
0*
#7000
b111100111100 ^"
b101 O"
b0 K"
b0 I"
b1 M"
b11100 G"
b111100 V"
b111100111100 X"
b111100111100 Z"
b111100111100 T"
b111100111100 Q"
b111100111100 ]"
b1100 a"
b111100111100 _"
b10100000000000000111100111100 c"
b0 )#
b0 (#
b0 '#
b0 &#
b0 %#
b0 $#
b0 ##
b0 "#
b0 !#
b0 ~"
b0 }"
b0 |"
b0 {"
b0 z"
b0 y"
b0 x"
b0 w"
b0 v"
b0 u"
b0 t"
b0 s"
b11111111111111111111111111111111 r"
b0 q"
b0 p"
b0 o"
b0 n"
b0 m"
b0 l"
b0 k"
b0 j"
b0 i"
b0 h"
b100 b"
b1000 '
b1000 /"
b1000 `"
1"
b1100 $
b1100 8
b1100 F"
1C
b1100 2
b1100 %"
b111100111100 '"
b111100111100 @
b101001 K
b111100111100 L
1/
b100000 g"
1*
#7500
b0 7
b0 &
b0 :
b0 d"
b0 ^"
b0 ]"
b1100 a"
b1001 P"
b10110 J"
b0 N"
b0 H"
b10100 W"
b10100 Y"
b10100 ["
b10100 U"
b101100000000000010100 R"
0C
b100100000101100000000000010100 S"
0/
b100000 7"
b1 ="
b100 6"
b0 C"
b1010 ?"
b1001 @"
b11 9"
b1100 5"
b1001000010101000000000110 2"
b110 4"
b101000000000110 8"
b1 A"
b0 ;"
b100100000101100000000000010100 (
b100100000101100000000000010100 0"
b100100000101100000000000010100 E"
0*
#8000
b1001 O"
b10110 I"
b0 M"
b0 G"
b10100 V"
b10100 X"
b10100 Z"
b10100 T"
b101100000000000010100 Q"
b1100 \"
b10000 a"
b0 _"
b100100000101100000000000010100 c"
b0 )#
b0 (#
b0 '#
b0 &#
b0 %#
b0 $#
b0 ##
b0 "#
b0 !#
b0 ~"
b0 }"
b0 |"
b0 {"
b0 z"
b0 y"
b0 x"
b0 w"
b0 v"
b0 u"
b0 t"
b0 s"
b11111111111111111111111111111111 r"
b0 q"
b0 p"
b0 o"
b0 n"
b0 m"
b0 l"
b0 k"
b0 j"
b0 i"
b1100 h"
b1000 b"
b1100 '
b1100 /"
b1100 `"
b11111111111111111111111111111101 $
b11111111111111111111111111111101 8
b11111111111111111111111111111101 F"
1C
b11111111111111111111111111111101 2
b11111111111111111111111111111101 %"
b0 '"
b0 @
b1100 K
b0 L
1/
b100000 g"
1*
#8500
b1111111110 7
b1111111110 &
b1111111110 :
b1111111110 d"
b1111111110 ^"
b1111111110 ]"
b0 \"
b10000 a"
b101 P"
b1 L"
b1 J"
b1111 H"
b111110 W"
b1111111110 Y"
b1111111110 ["
b1111111110 U"
b1000010000001111111110 R"
0C
b10100001000010000001111111110 S"
0/
b100000 7"
b10 ="
b1000 6"
b11100 C"
b1 ?"
b0 A"
b100 9"
b10000 5"
b111100111100 2"
b111100 4"
b111100111100 8"
b0 @"
b101 ;"
b10100001000010000001111111110 (
b10100001000010000001111111110 0"
b10100001000010000001111111110 E"
0*
#9000
b1111111110 ^"
b101 O"
b1 K"
b1 I"
b1111 G"
b111110 V"
b1111111110 X"
b1111111110 Z"
b1111111110 T"
b1000010000001111111110 Q"
b1111111110 ]"
b10100 a"
b1111111110 _"
b10100001000010000001111111110 c"
b0 )#
b0 (#
b0 '#
b0 &#
b0 %#
b0 $#
b0 ##
b0 "#
b0 !#
b101000000000000000000 ~"
b0 }"
b0 |"
b0 {"
b0 z"
b0 y"
b0 x"
b0 w"
b0 v"
b0 u"
b0 t"
b0 s"
b11111111111111111111111111111111 r"
b0 q"
b0 p"
b0 o"
b0 n"
b0 m"
b0 l"
b0 k"
b0 j"
b0 i"
b1100 h"
b1100 b"
b10000 '
b10000 /"
b10000 `"
b0 $
b0 8
b0 F"
1C
b0 2
b0 %"
b1111111110 '"
b1111111110 @
b11111111111111111111111111111101 K
b1111111110 L
1/
b100000 g"
1*
#9500
b110011101101 7
b110011101101 &
b110011101101 :
b110011101101 d"
b110011101101 ^"
b110011101101 ]"
b10100 a"
b10 L"
b10 J"
b1 N"
b10011 H"
b101101 W"
b110011101101 Y"
b110011101101 ["
b110011101101 U"
b10000100000110011101101 R"
0C
b10100010000100000110011101101 S"
0/
b100000 7"
b11 ="
b1100 6"
b0 C"
b0 ?"
b1001 ;"
b101 9"
b10100 5"
b101100000000000010100 2"
b10100 4"
b10100 8"
b10110 A"
b0 @"
b10100010000100000110011101101 (
b10100010000100000110011101101 0"
b10100010000100000110011101101 E"
0*
#10000
b10 K"
b10 I"
b1 M"
b10011 G"
b101101 V"
b110011101101 X"
b110011101101 Z"
b110011101101 T"
b10000100000110011101101 Q"
b11000 a"
b110011101101 _"
b10100010000100000110011101101 c"
b0 )#
b0 (#
b0 '#
b0 &#
b0 %#
b0 $#
b0 ##
b0 "#
b0 !#
b101000000000000000000 ~"
b0 }"
b0 |"
b0 {"
b0 z"
b0 y"
b0 x"
b0 w"
b0 v"
b0 u"
b0 t"
b0 s"
b11111111111111111111111111111111 r"
b0 q"
b0 p"
b0 o"
b0 n"
b0 m"
b0 l"
b0 k"
b0 j"
b0 i"
b1100 h"
b10000 b"
b10100 '
b10100 /"
b10100 `"
b11100 $
b11100 8
b11100 F"
1C
b11100 2
b11100 %"
b110011101101 '"
b110011101101 @
b0 K
b110011101101 L
1/
b100000 g"
1*
#10500
b10001010 7
b10001010 &
b10001010 :
b10001010 d"
b10001010 ^"
b10001010 ]"
b11000 a"
b11 L"
b11 J"
b0 N"
b10 H"
b1010 W"
b10001010 Y"
b10001010 ["
b10001010 U"
b11000110000000010001010 R"
0C
b10100011000110000000010001010 S"
0/
b100000 7"
b100 ="
b10000 6"
b1111 C"
b110 9"
b11000 5"
b1000010000001111111110 2"
b111110 4"
b1111111110 8"
b1 A"
b1 @"
b101 ;"
b10100011000110000000010001010 (
b10100011000110000000010001010 0"
b10100011000110000000010001010 E"
0*
#11000
b10001010 ^"
b11 K"
b11 I"
b0 M"
b10 G"
b1010 V"
b10001010 X"
b10001010 Z"
b10001010 T"
b11000110000000010001010 Q"
b10001010 ]"
b11100 a"
b10001010 _"
b10100011000110000000010001010 c"
b0 )#
b0 (#
b0 '#
b0 &#
b0 %#
b0 $#
b0 ##
b0 "#
b0 !#
b101000000000000000000 ~"
b0 }"
b0 |"
b0 {"
b0 z"
b0 y"
b0 x"
b0 w"
b0 v"
b0 u"
b0 t"
b0 s"
b11111111111111111111111111111111 r"
b0 q"
b0 p"
b0 o"
b0 n"
b0 m"
b0 l"
b0 k"
b11100 j"
b0 i"
b1100 h"
b10100 b"
b11000 '
b11000 /"
b11000 `"
b101111 $
b101111 8
b101111 F"
1C
b101111 2
b101111 %"
b10001010 '"
b10001010 @
b11100 K
b10001010 L
1/
b100000 g"
1*
#11500
b11010000011 7
b11010000011 &
b11010000011 :
b11010000011 d"
b11010000011 ^"
b11010000011 ]"
b11100 a"
b100 L"
b100 J"
b11010 H"
b11 W"
b11010000011 Y"
b11010000011 ["
b11010000011 U"
b100001000000011010000011 R"
0C
b10100100001000000011010000011 S"
0/
b100000 7"
b101 ="
b10100 6"
b10011 C"
b1 ?"
b111 9"
b11100 5"
b10000100000110011101101 2"
b101101 4"
b110011101101 8"
b10 A"
b10 @"
b10100100001000000011010000011 (
b10100100001000000011010000011 0"
b10100100001000000011010000011 E"
0*
#12000
b11010000011 ^"
b100 K"
b100 I"
b11010 G"
b11 V"
b11010000011 X"
b11010000011 Z"
b11010000011 T"
b100001000000011010000011 Q"
b11010000011 ]"
b100000 a"
b11010000011 _"
b10100100001000000011010000011 c"
b0 )#
b0 (#
b0 '#
b0 &#
b0 %#
b0 $#
b0 ##
b0 "#
b0 !#
b101000000000000000000 ~"
b0 }"
b0 |"
b0 {"
b0 z"
b0 y"
b0 x"
b0 w"
b0 v"
b0 u"
b0 t"
b0 s"
b11111111111111111111111111111111 r"
b0 q"
b0 p"
b0 o"
b0 n"
b0 m"
b0 l"
b101111 k"
b11100 j"
b0 i"
b1100 h"
b11000 b"
b11100 '
b11100 /"
b11100 `"
b110000 $
b110000 8
b110000 F"
1C
b110000 2
b110000 %"
b11010000011 '"
b11010000011 @
b101111 K
b11010000011 L
1/
b100000 g"
1*
#12500
b0 7
b0 &
b0 :
b0 d"
b0 ^"
b0 ]"
b1100 \"
b100000 a"
b1001 P"
b0 L"
b10110 J"
b0 H"
b0 W"
b0 Y"
b0 ["
b0 U"
b101100000000000000000 R"
0C
b100100000101100000000000000000 S"
0/
b100000 7"
b110 ="
b11000 6"
b10 C"
b0 ?"
b1000 9"
b100000 5"
b11000110000000010001010 2"
b1010 4"
b10001010 8"
b11 A"
b11 @"
b101 ;"
b100100000101100000000000000000 (
b100100000101100000000000000000 0"
b100100000101100000000000000000 E"
0*
#13000
b1001 O"
b0 K"
b10110 I"
b0 G"
b0 V"
b0 X"
b0 Z"
b0 T"
b101100000000000000000 Q"
b100100 a"
b0 _"
b100100000101100000000000000000 c"
b0 )#
b0 (#
b0 '#
b0 &#
b0 %#
b0 $#
b0 ##
b0 "#
b0 !#
b101000000000000000000 ~"
b0 }"
b0 |"
b0 {"
b0 z"
b0 y"
b0 x"
b0 w"
b0 v"
b0 u"
b0 t"
b0 s"
b11111111111111111111111111111111 r"
b0 q"
b0 p"
b0 o"
b0 n"
b0 m"
b110000 l"
b101111 k"
b11100 j"
b0 i"
b1100 h"
b11100 b"
b100000 '
b100000 /"
b100000 `"
b11111111111111111111111111111101 $
b11111111111111111111111111111101 8
b11111111111111111111111111111101 F"
1C
b11111111111111111111111111111101 2
b11111111111111111111111111111101 %"
b0 '"
b0 @
b110000 K
b0 L
1/
b100000 g"
1*
#13500
b100010011000 7
b100010011000 &
b100010011000 :
b100010011000 d"
b100010011000 ^"
b100010011000 ]"
b0 \"
b100100 a"
b101 P"
b101 L"
b101 J"
b1 N"
b10 H"
b11000 W"
b100010011000 Y"
b100010011000 ["
b100010011000 U"
b101001010000100010011000 R"
0C
b10100101001010000100010011000 S"
0/
b100000 7"
b111 ="
b11100 6"
b11010 C"
b1001 9"
b100100 5"
b100001000000011010000011 2"
b11 4"
b11010000011 8"
b100 A"
b100 @"
b10100101001010000100010011000 (
b10100101001010000100010011000 0"
b10100101001010000100010011000 E"
0*
#14000
b100010011000 ^"
b101 O"
b101 K"
b101 I"
b1 M"
b10 G"
b11000 V"
b100010011000 X"
b100010011000 Z"
b100010011000 T"
b101001010000100010011000 Q"
b100010011000 ]"
b101000 a"
b100010011000 _"
b10100101001010000100010011000 c"
b0 )#
b0 (#
b0 '#
b0 &#
b0 %#
b0 $#
b0 ##
b0 "#
b0 !#
b0 ~"
b0 }"
b0 |"
b0 {"
b0 z"
b0 y"
b0 x"
b0 w"
b0 v"
b0 u"
b0 t"
b0 s"
b11111111111111111111111111111111 r"
b0 q"
b0 p"
b0 o"
b0 n"
b0 m"
b110000 l"
b101111 k"
b11100 j"
b0 i"
b1100 h"
b100000 b"
b100100 '
b100100 /"
b100100 `"
b11111111111111111111111111111110 $
b11111111111111111111111111111110 8
b11111111111111111111111111111110 F"
1C
b11111111111111111111111111111110 2
b11111111111111111111111111111110 %"
b100010011000 '"
b100010011000 @
b11111111111111111111111111111101 K
b100010011000 L
1/
b100000 g"
1*
#14500
b11001110001 7
b11001110001 &
b11001110001 :
b11001110001 d"
b11001110001 ^"
b11001110001 ]"
b101000 a"
b110 L"
b110 J"
b0 N"
b11001 H"
b110001 W"
b11001110001 Y"
b11001110001 ["
b11001110001 U"
b110001100000011001110001 R"
0C
b10100110001100000011001110001 S"
0/
b100000 7"
b1000 ="
b100000 6"
b0 C"
b1001 ;"
b1010 9"
b101000 5"
b101100000000000000000 2"
b0 4"
b0 8"
b10110 A"
b0 @"
b10100110001100000011001110001 (
b10100110001100000011001110001 0"
b10100110001100000011001110001 E"
0*
